profile_id,bankrefid,bankrefdesc,loanamount,signupdate,startdate,loanyears,nbrpaymentyear,interestrate,amortyears
4,22014036,Crelan-Tracteur,120000,12/10/14,01/01/15,10,12,3.1,7
4,BK0220014,Triodos-toiture,100000,01/06/16,07/06/16,20,6,2,10
